Analysing n-grams with jstor for R • jstor
…
Since we have a decent amount of articles, let’s speed up the process of importing the metadata via parallel processing. jstor_import is a nice wrapper which takes care of setting up the processes and deals with any errors that might occur along the way.

jstor_import(meta_files, out_file = "imported_metadata", .f = find_article,
             files_per_batch = 25000, cores = 4)
#> Starting to import 23909 file(s).
#> Processing chunk 1/1
#>   |===================================================================| 100%
#> Finished importing 23909 file(s) in 2.54 mins.

Since jstor_import writes the results to disk, we need to read the metadata from the newly created file.1

imported_metadata <- read_csv("imported_metadata-1.csv", guess_max = 2000)
imported_metadata

## # A tibble: 23,909 x 17
##    basename_id        journal_doi journal_jcode journal_pub_id article_doi
##    <chr>                    <dbl> <chr>         <chr>          <chr>      
##  1 journal-article-1…          NA <NA>          amerjsoci      10.1086/21…
##  2 journal-article-1…          NA <NA>          amerjsoci      10.1086/21…
##  3 journal-article-1…          NA <NA>          amerjsoci      10.1086/21…
##  4 journal-article-1…          NA <NA>          amerjsoci      10.1086/21…
##  5 journal-article-1…          NA <NA>          amerjsoci      10.1086/21…
##  6 journal-article-1…          NA <NA>          amerjsoci      10.1086/21…
##  7 journal-article-1…          NA <NA>          amerjsoci      10.1086/21…
##  8 journal-article-1…          NA <NA>          amerjsoci      10.1086/21…
##  9 journal-article-1…          NA <NA>          amerjsoci      10.1086/21…
## 10 journal-article-1…          NA <NA>          amerjsoci      10.1086/21…
## # ... with 23,899 more rows, and 12 more variables: article_pub_id <chr>,
## #   article_jcode <chr>, article_type <chr>, article_title <chr>,
## #   volume <chr>, issue <chr>, language <chr>, pub_day <chr>,
## #   pub_month <chr>, pub_year <int>, first_page <int>, last_page <int>
…
We must be cautious, however, when using this variable to distinguish articles into categories. In this instance, we have “research-articles” which are actually book-reviews:

imported_metadata %>% 
  filter(article_type == "research-article" & str_detect(article_title, "Book")) %>% 
  select(basename_id, article_title, pub_year)

## # A tibble: 190 x 3
##    basename_id                    article_title pub_year
##    <chr>                          <chr>            <int>
##  1 journal-article-10.1086_210272 Book Reviews      1999
##  2 journal-article-10.1086_210273 Book Reviews      1999
##  3 journal-article-10.1086_210274 Book Reviews      1999
##  4 journal-article-10.1086_210275 Book Reviews      1999
##  5 journal-article-10.1086_210276 Book Reviews      1999
##  6 journal-article-10.1086_210278 Book Reviews      1999
##  7 journal-article-10.1086_210279 Book Reviews      1999
##  8 journal-article-10.1086_210280 Book Reviews      1999
##  9 journal-article-10.1086_210281 Book Reviews      1999
## 10 journal-article-10.1086_210283 Book Reviews      1999
## # ... with 180 more rows
…
This illustrates rather strikingly, that most of the time our information is in “journal_jcode”, and when it isn’t, it is in “journal_pub_id”.

There are, however, some cases, where there is information in both variables:

without_wall %>% 
  filter(!is.na(journal_jcode) & !is.na(journal_pub_id))

## # A tibble: 33 x 17
##    basename_id        journal_doi journal_jcode journal_pub_id article_doi
##    <chr>                    <dbl> <chr>         <chr>          <chr>      
##  1 journal-article-1…          NA j50018924     weatclimsoci   <NA>       
##  2 journal-article-1…          NA j50018924     weatclimsoci   <NA>       
##  3 journal-article-1…          NA j50018924     weatclimsoci   <NA>       
##  4 journal-article-1…          NA j50018924     weatclimsoci   <NA>       
##  5 journal-article-1…          NA j50018924     weatclimsoci   <NA>       
##  6 journal-article-1…          NA j50018924     weatclimsoci   <NA>       
##  7 journal-article-1…          NA j50019839     geneses        <NA>       
##  8 journal-article-1…          NA j50019839     geneses        <NA>       
##  9 journal-article-1…          NA j50019839     geneses        <NA>       
## 10 journal-article-1…          NA j50019839     geneses        <NA>       
## # ... with 23 more rows, and 12 more variables: article_pub_id <chr>,
## #   article_jcode <chr>, article_type <chr>, article_title <chr>,
## #   volume <chr>, issue <chr>, language <chr>, pub_day <chr>,
## #   pub_month <chr>, pub_year <int>, first_page <int>, last_page <int>
…
bigrams_filtered <- bigrams_separated %>%
  filter(!word1 %in% stop_words$word) %>%
  filter(!word2 %in% stop_words$word)

After removing the stopwords we need to consider the fact, that our bigrams were created for each article on its own. In order to analyse them together, we need to count the terms for all articles in combination.

bigram_counts <- bigrams_filtered %>%
  group_by(word1, word2) %>%
  summarise(n = sum(n)) %>%
  arrange(desc(n))

bigram_counts

## # A tibble: 106,706 x 3
## # Groups:   word1 [18,152]
##    word1        word2            n
##    <chr>        <chr>        <int>
##  1 american     sociological  9593
##  2 sociological review        9198
##  3 university   press         4603
##  4 labor        market        3555
##  5 american     journal       3273
##  6 9            7             3270
##  7 7            6             3260
##  8 10           9             3230
##  9 amsmath      amsxtra       3192
## 10 begin        document      3192
## # ... with 106,696 more rows
…
Again, we need to sum up the counts, but this time grouped by year:

time_bigrams <- time_bigrams %>%
  group_by(bigrams, pub_year) %>%
  summarise(n = sum(n)) %>%
  arrange(desc(n))

time_bigrams

## # A tibble: 248,725 x 3
## # Groups:   bigrams [157,266]
##    bigrams               pub_year     n
##    <chr>                    <int> <int>
##  1 0 0                       2004  1071
##  2 et al                     2014   916
##  3 women s                   2006   885
##  4 american sociological     2014   860
##  5 sociological review       2014   814
##  6 u s                       2014   793
##  7 et al                     2011   792
##  8 et al                     2013   748
##  9 et al                     2010   691
## 10 et al                     2012   687
## # ... with 248,715 more rows
…
