…
jst_import_zip("part1.zip", import_spec = import_spec, out_file = "part1")
jst_import_zip("part2.zip", import_spec = import_spec, out_file = "part2")

#> Processing files for journal_article with functions jst_get_article
#> Processing chunk 1/1
#>  Progress: ───────────────────────────────────────────────────────────── 100%

Since jst_import_zip writes the results to disk, we need to read the metadata from the newly created file. This is made easy by jst_re_import which ensures, that the data are read with the right column types.

imported_metadata <- c("part1_journal_article_jst_get_article-1.csv",
                       "part2_journal_article_jst_get_article-1.csv") %>% 
  map_df(jst_re_import)
imported_metadata

## # A tibble: 23,909 x 19
##    file_name     journal_doi journal_jcode journal_pub_id journal_title   
##    <chr>         <chr>       <chr>         <chr>          <chr>           
##  1 journal-arti… <NA>        <NA>          amerjsoci      American Journa…
##  2 journal-arti… <NA>        <NA>          amerjsoci      American Journa…
##  3 journal-arti… <NA>        <NA>          amerjsoci      American Journa…
##  4 journal-arti… <NA>        <NA>          amerjsoci      American Journa…
##  5 journal-arti… <NA>        <NA>          amerjsoci      American Journa…
##  6 journal-arti… <NA>        <NA>          amerjsoci      American Journa…
##  7 journal-arti… <NA>        <NA>          amerjsoci      American Journa…
##  8 journal-arti… <NA>        <NA>          amerjsoci      American Journa…
##  9 journal-arti… <NA>        <NA>          amerjsoci      American Journa…
## 10 journal-arti… <NA>        <NA>          amerjsoci      American Journa…
## # ... with 23,899 more rows, and 14 more variables: article_doi <chr>,
## #   article_pub_id <chr>, article_jcode <chr>, article_type <chr>,
## #   article_title <chr>, volume <chr>, issue <chr>, language <chr>,
## #   pub_day <chr>, pub_month <chr>, pub_year <int>, first_page <chr>,
## #   last_page <chr>, page_range <chr>
…
We must be cautious, however, when using this variable to distinguish articles into categories. In this instance, we have “research-articles” which are actually book-reviews:

imported_metadata %>% 
  filter(article_type == "research-article" & str_detect(article_title, "Book")) %>% 
  select(file_name, article_title, pub_year)

## # A tibble: 190 x 3
##    file_name                      article_title pub_year
##    <chr>                          <chr>            <int>
##  1 journal-article-10.1086_210272 Book Reviews      1999
##  2 journal-article-10.1086_210273 Book Reviews      1999
##  3 journal-article-10.1086_210274 Book Reviews      1999
##  4 journal-article-10.1086_210275 Book Reviews      1999
##  5 journal-article-10.1086_210276 Book Reviews      1999
##  6 journal-article-10.1086_210278 Book Reviews      1999
##  7 journal-article-10.1086_210279 Book Reviews      1999
##  8 journal-article-10.1086_210280 Book Reviews      1999
##  9 journal-article-10.1086_210281 Book Reviews      1999
## 10 journal-article-10.1086_210283 Book Reviews      1999
## # ... with 180 more rows
…
bigrams_filtered <- bigrams_separated %>%
  filter(!word1 %in% stop_words$word) %>%
  filter(!word2 %in% stop_words$word)

After removing the stopwords we need to consider the fact, that our bigrams were created for each article on its own. In order to analyse them together, we need to count the terms for all articles in combination.

bigram_counts <- bigrams_filtered %>%
  group_by(word1, word2) %>%
  summarise(n = sum(n)) %>%
  arrange(desc(n))

bigram_counts

## # A tibble: 106,706 x 3
## # Groups:   word1 [18,152]
##    word1        word2            n
##    <chr>        <chr>        <int>
##  1 american     sociological  9593
##  2 sociological review        9198
##  3 university   press         4603
##  4 labor        market        3555
##  5 american     journal       3273
##  6 9            7             3270
##  7 7            6             3260
##  8 10           9             3230
##  9 amsmath      amsxtra       3192
## 10 begin        document      3192
## # ... with 106,696 more rows
…
Again, we need to sum up the counts, but this time grouped by year:

time_bigrams <- time_bigrams %>%
  group_by(bigrams, pub_year) %>%
  summarise(n = sum(n)) %>%
  arrange(desc(n))

time_bigrams

## # A tibble: 248,725 x 3
## # Groups:   bigrams [157,266]
##    bigrams               pub_year     n
##    <chr>                    <int> <int>
##  1 0 0                       2004  1071
##  2 et al                     2014   916
##  3 women s                   2006   885
##  4 american sociological     2014   860
##  5 sociological review       2014   814
##  6 u s                       2014   793
##  7 et al                     2011   792
##  8 et al                     2013   748
##  9 et al                     2010   691
## 10 et al                     2012   687
## # ... with 248,715 more rows
…
