Extract information on book chapters — jst_get_chapters • jstor
…
abstract (chr): The abstract to the part.

part_first_page (chr): The page where the part begins.

    Details

    Currently, jst_get_chapters() is quite a lot slower than most of the other
functions. It is roughly 10 times slower than jst_get_book, depending on
the number of chapters to extract.

    Examples

# extract parts without authors
jst_get_chapters(jst_example("book.xml"))
#> # A tibble: 36 x 9
#>    book_id file_name part_id part_label part_title part_subtitle authors
#>    <chr>   <chr>     <chr>   <chr>      <chr>      <chr>         <chr>  
#>  1 j.ctt2… book      j.ctt2… NA         Front Mat… NA            NA     
#>  2 j.ctt2… book      j.ctt2… NA         Table of … NA            NA     
#>  3 j.ctt2… book      j.ctt2… NA         Acronyms … NA            NA     
#>  4 j.ctt2… book      j.ctt2… NA         Authors’ … NA            NA     
#>  5 j.ctt2… book      j.ctt2… 1.         The enigm… NA            NA     
#>  6 j.ctt2… book      j.ctt2… 2.         ‘Anxiety,… Fiji’s road … NA     
#>  7 j.ctt2… book      j.ctt2… 3.         Fiji’s De… Who, what, w… NA     
#>  8 j.ctt2… book      j.ctt2… 4.         ‘This pro… The aftermat… NA     
#>  9 j.ctt2… book      j.ctt2… 5.         The chang… NA            NA     
#> 10 j.ctt2… book      j.ctt2… 6.         The Fiji … Analyzing th… NA     
#> # … with 26 more rows, and 2 more variables: abstract <chr>,
#> #   part_first_page <chr>

# import authors too
parts <- jst_get_chapters(jst_example("book.xml"), authors = TRUE)
parts
#> # A tibble: 36 x 9
#>    book_id file_name part_id part_label part_title part_subtitle authors
#>    <chr>   <chr>     <chr>   <chr>      <chr>      <chr>         <list> 
#>  1 j.ctt2… book      j.ctt2… NA         Front Mat… NA            <tibbl…
#>  2 j.ctt2… book      j.ctt2… NA         Table of … NA            <tibbl…
#>  3 j.ctt2… book      j.ctt2… NA         Acronyms … NA            <tibbl…
#>  4 j.ctt2… book      j.ctt2… NA         Authors’ … NA            <tibbl…
#>  5 j.ctt2… book      j.ctt2… 1.         The enigm… NA            <tibbl…
#>  6 j.ctt2… book      j.ctt2… 2.         ‘Anxiety,… Fiji’s road … <tibbl…
#>  7 j.ctt2… book      j.ctt2… 3.         Fiji’s De… Who, what, w… <tibbl…
#>  8 j.ctt2… book      j.ctt2… 4.         ‘This pro… The aftermat… <tibbl…
#>  9 j.ctt2… book      j.ctt2… 5.         The chang… NA            <tibbl…
#> 10 j.ctt2… book      j.ctt2… 6.         The Fiji … Analyzing th… <tibbl…
#> # … with 26 more rows, and 2 more variables: abstract <chr>,
#> #   part_first_page <chr>

tidyr::unnest(parts)
#> Warning: `cols` is now required.
#> Please use `cols = c(authors)`
#> # A tibble: 39 x 14
#>    book_id file_name part_id part_label part_title part_subtitle prefix
#>    <chr>   <chr>     <chr>   <chr>      <chr>      <chr>         <chr> 
#>  1 j.ctt2… book      j.ctt2… NA         Front Mat… NA            NA    
#>  2 j.ctt2… book      j.ctt2… NA         Table of … NA            NA    
#>  3 j.ctt2… book      j.ctt2… NA         Acronyms … NA            NA    
#>  4 j.ctt2… book      j.ctt2… NA         Authors’ … NA            NA    
#>  5 j.ctt2… book      j.ctt2… 1.         The enigm… NA            NA    
#>  6 j.ctt2… book      j.ctt2… 1.         The enigm… NA            NA    
#>  7 j.ctt2… book      j.ctt2… 2.         ‘Anxiety,… Fiji’s road … NA    
#>  8 j.ctt2… book      j.ctt2… 3.         Fiji’s De… Who, what, w… NA    
#>  9 j.ctt2… book      j.ctt2… 4.         ‘This pro… The aftermat… NA    
#> 10 j.ctt2… book      j.ctt2… 5.         The chang… NA            NA    
#> # … with 29 more rows, and 7 more variables: given_name <chr>, surname <chr>,
#> #   string_name <chr>, suffix <chr>, author_number <dbl>, abstract <chr>,
#> #   part_first_page <chr>
…
